months,date,actual,plan,plan_linear,ariadne_lead_points,ariadne_lead_linear,ariadne_min,ariadne_max
Dez 20,15.12.2020,,,,0.28,0.28,0.28,0.28
Jan 21,15.01.2021,,,,,0.30,0.29,0.34
Feb 21,15.02.2021,,,,,0.32,0.30,0.40
Mrz 21,15.03.2021,,,,,0.34,0.31,0.46
Apr 21,15.04.2021,,,,,0.35,0.32,0.52
Mai 21,15.05.2021,,,,,0.37,0.33,0.58
Jun 21,15.06.2021,,,,,0.39,0.34,0.64
Jul 21,15.07.2021,,,,,0.40,0.34,0.70
Aug 21,15.08.2021,,,,,0.42,0.35,0.76
Sep 21,15.09.2021,,,,,0.44,0.36,0.82
Okt 21,15.10.2021,0.061,,0.06,,0.45,0.37,0.88
Nov 21,15.11.2021,,,0.15,,0.47,0.38,0.94
Dez 21,15.12.2021,,,0.24,,0.49,0.39,1.00
Jan 22,15.01.2022,,,0.33,,0.51,0.39,1.06
Feb 22,15.02.2022,,,0.42,,0.52,0.40,1.12
Mrz 22,15.03.2022,,,0.51,,0.54,0.41,1.18
Apr 22,15.04.2022,,,0.60,,0.56,0.42,1.24
Mai 22,15.05.2022,,,0.69,,0.57,0.43,1.30
Jun 22,15.06.2022,,,0.78,,0.59,0.44,1.36
Jul 22,15.07.2022,,,0.87,,0.61,0.44,1.42
Aug 22,15.08.2022,,,0.96,,0.62,0.45,1.48
Sep 22,15.09.2022,,,1.05,,0.64,0.46,1.54
Okt 22,15.10.2022,,,1.15,,0.66,0.47,1.60
Nov 22,15.11.2022,,,1.24,,0.68,0.48,1.66
Dez 22,15.12.2022,,,1.33,,0.69,0.49,1.72
Jan 23,15.01.2023,,,1.42,,0.71,0.49,1.78
Feb 23,15.02.2023,,,1.51,,0.73,0.50,1.84
Mrz 23,15.03.2023,,,1.60,,0.74,0.51,1.90
Apr 23,15.04.2023,,,1.69,,0.76,0.52,1.96
Mai 23,15.05.2023,,,1.78,,0.78,0.53,2.02
Jun 23,15.06.2023,,,1.87,,0.79,0.54,2.08
Jul 23,15.07.2023,,,1.96,,0.81,0.54,2.14
Aug 23,15.08.2023,,,2.05,,0.83,0.55,2.20
Sep 23,15.09.2023,,,2.14,,0.85,0.56,2.26
Okt 23,15.10.2023,,,2.23,,0.86,0.57,2.31
Nov 23,15.11.2023,,,2.32,,0.88,0.58,2.37
Dez 23,15.12.2023,,,2.41,,0.90,0.59,2.43
Jan 24,15.01.2024,,,2.50,,0.91,0.59,2.49
Feb 24,15.02.2024,,,2.59,,0.93,0.60,2.55
Mrz 24,15.03.2024,,,2.68,,0.95,0.61,2.61
Apr 24,15.04.2024,,,2.77,,0.96,0.62,2.67
Mai 24,15.05.2024,,,2.86,,0.98,0.63,2.73
Jun 24,15.06.2024,,,2.95,,1.00,0.64,2.79
Jul 24,15.07.2024,,,3.04,,1.02,0.65,2.85
Aug 24,15.08.2024,,,3.13,,1.03,0.65,2.91
Sep 24,15.09.2024,,,3.22,,1.05,0.66,2.97
Okt 24,15.10.2024,,,3.31,,1.07,0.67,3.03
Nov 24,15.11.2024,,,3.40,,1.08,0.68,3.09
Dez 24,15.12.2024,,,3.49,,1.10,0.69,3.15
Jan 25,15.01.2025,,,3.58,,1.12,0.70,3.21
Feb 25,15.02.2025,,,3.68,,1.13,0.70,3.27
Mrz 25,15.03.2025,,,3.77,,1.15,0.71,3.33
Apr 25,15.04.2025,,,3.86,,1.17,0.72,3.39
Mai 25,15.05.2025,,,3.95,,1.18,0.73,3.45
Jun 25,15.06.2025,,,4.04,,1.20,0.74,3.51
Jul 25,15.07.2025,,,4.13,,1.22,0.75,3.57
Aug 25,15.08.2025,,,4.22,,1.24,0.75,3.63
Sep 25,15.09.2025,,,4.31,,1.25,0.76,3.69
Okt 25,15.10.2025,,,4.40,,1.27,0.77,3.75
Nov 25,15.11.2025,,,4.49,,1.29,0.78,3.81
Dez 25,15.12.2025,,,4.58,1.30,1.30,0.79,3.87
Jan 26,15.01.2026,,,4.67,,1.37,0.83,4.01
Feb 26,15.02.2026,,,4.76,,1.43,0.87,4.15
Mrz 26,15.03.2026,,,4.85,,1.50,0.92,4.29
Apr 26,15.04.2026,,,4.94,,1.56,0.96,4.43
Mai 26,15.05.2026,,,5.03,,1.63,1.00,4.58
Jun 26,15.06.2026,,,5.12,,1.69,1.05,4.72
Jul 26,15.07.2026,,,5.21,,1.76,1.09,4.86
Aug 26,15.08.2026,,,5.30,,1.82,1.13,5.00
Sep 26,15.09.2026,,,5.39,,1.89,1.18,5.14
Okt 26,15.10.2026,,,5.48,,1.95,1.22,5.28
Nov 26,15.11.2026,,,5.57,,2.02,1.26,5.42
Dez 26,15.12.2026,,,5.66,,2.09,1.31,5.57
Jan 27,15.01.2027,,,5.75,,2.15,1.35,5.71
Feb 27,15.02.2027,,,5.84,,2.22,1.39,5.85
Mrz 27,15.03.2027,,,5.93,,2.28,1.44,5.99
Apr 27,15.04.2027,,,6.02,,2.35,1.48,6.13
Mai 27,15.05.2027,,,6.11,,2.41,1.52,6.27
Jun 27,15.06.2027,,,6.21,,2.48,1.57,6.42
Jul 27,15.07.2027,,,6.30,,2.54,1.61,6.56
Aug 27,15.08.2027,,,6.39,,2.61,1.65,6.70
Sep 27,15.09.2027,,,6.48,,2.67,1.70,6.84
Okt 27,15.10.2027,,,6.57,,2.74,1.74,6.98
Nov 27,15.11.2027,,,6.66,,2.80,1.78,7.12
Dez 27,15.12.2027,,,6.75,,2.87,1.83,7.27
Jan 28,15.01.2028,,,6.84,,2.93,1.87,7.41
Feb 28,15.02.2028,,,6.93,,3.00,1.91,7.55
Mrz 28,15.03.2028,,,7.02,,3.06,1.96,7.69
Apr 28,15.04.2028,,,7.11,,3.13,2.00,7.83
Mai 28,15.05.2028,,,7.20,,3.19,2.04,7.97
Jun 28,15.06.2028,,,7.29,,3.26,2.09,8.11
Jul 28,15.07.2028,,,7.38,,3.32,2.13,8.26
Aug 28,15.08.2028,,,7.47,,3.39,2.17,8.40
Sep 28,15.09.2028,,,7.56,,3.45,2.22,8.54
Okt 28,15.10.2028,,,7.65,,3.52,2.26,8.68
Nov 28,15.11.2028,,,7.74,,3.58,2.30,8.82
Dez 28,15.12.2028,,,7.83,,3.65,2.35,8.96
Jan 29,15.01.2029,,,7.92,,3.71,2.39,9.11
Feb 29,15.02.2029,,,8.01,,3.78,2.43,9.25
Mrz 29,15.03.2029,,,8.10,,3.84,2.48,9.39
Apr 29,15.04.2029,,,8.19,,3.91,2.52,9.53
Mai 29,15.05.2029,,,8.28,,3.97,2.56,9.67
Jun 29,15.06.2029,,,8.37,,4.04,2.61,9.81
Jul 29,15.07.2029,,,8.46,,4.10,2.65,9.96
Aug 29,15.08.2029,,,8.55,,4.17,2.69,10.10
Sep 29,15.09.2029,,,8.64,,4.23,2.74,10.24
Okt 29,15.10.2029,,,8.74,,4.30,2.78,10.38
Nov 29,15.11.2029,,,8.83,,4.36,2.82,10.52
Dez 29,15.12.2029,,,8.92,,4.43,2.87,10.66
Jan 30,15.01.2030,,,9.01,,4.49,2.91,10.81
Feb 30,15.02.2030,,,9.10,,4.56,2.95,10.95
Mrz 30,15.03.2030,,,9.19,,4.62,3.00,11.09
Apr 30,15.04.2030,,,9.28,,4.69,3.04,11.23
Mai 30,15.05.2030,,,9.37,,4.75,3.08,11.37
Jun 30,15.06.2030,,,9.46,,4.82,3.13,11.51
Jul 30,15.07.2030,,,9.55,,4.88,3.17,11.65
Aug 30,15.08.2030,,,9.64,,4.95,3.21,11.80
Sep 30,15.09.2030,,,9.73,,5.01,3.26,11.94
Okt 30,15.10.2030,,,9.82,,5.08,3.30,12.08
Nov 30,15.11.2030,,,9.91,,5.14,3.34,12.22
Dez 30,15.12.2030,,10,10.00,5.21,5.21,3.39,12.36
Jan 31,15.01.2031,,,,,5.29,3.44,12.47
Feb 31,15.02.2031,,,,,5.36,3.50,12.59
Mrz 31,15.03.2031,,,,,5.44,3.56,12.70
Apr 31,15.04.2031,,,,,5.51,3.62,12.81
Mai 31,15.05.2031,,,,,5.59,3.67,12.92
Jun 31,15.06.2031,,,,,5.67,3.73,13.03
Jul 31,15.07.2031,,,,,5.74,3.79,13.14
Aug 31,15.08.2031,,,,,5.82,3.85,13.26
Sep 31,15.09.2031,,,,,5.89,3.90,13.37
Okt 31,15.10.2031,,,,,5.97,3.96,13.48
Nov 31,15.11.2031,,,,,6.05,4.02,13.59
Dez 31,15.12.2031,,,,,6.12,4.08,13.70
Jan 32,15.01.2032,,,,,6.20,4.14,13.81
Feb 32,15.02.2032,,,,,6.28,4.19,13.93
Mrz 32,15.03.2032,,,,,6.35,4.25,14.04
Apr 32,15.04.2032,,,,,6.43,4.31,14.15
Mai 32,15.05.2032,,,,,6.50,4.37,14.26
Jun 32,15.06.2032,,,,,6.58,4.42,14.37
Jul 32,15.07.2032,,,,,6.66,4.48,14.48
Aug 32,15.08.2032,,,,,6.73,4.54,14.60
Sep 32,15.09.2032,,,,,6.81,4.60,14.71
Okt 32,15.10.2032,,,,,6.88,4.65,14.82
Nov 32,15.11.2032,,,,,6.96,4.71,14.93
Dez 32,15.12.2032,,,,,7.04,4.77,15.04
Jan 33,15.01.2033,,,,,7.11,4.83,15.15
Feb 33,15.02.2033,,,,,7.19,4.88,15.27
Mrz 33,15.03.2033,,,,,7.26,4.94,15.38
Apr 33,15.04.2033,,,,,7.34,5.00,15.49
Mai 33,15.05.2033,,,,,7.42,5.06,15.60
Jun 33,15.06.2033,,,,,7.49,5.11,15.71
Jul 33,15.07.2033,,,,,7.57,5.17,15.82
Aug 33,15.08.2033,,,,,7.64,5.23,15.94
Sep 33,15.09.2033,,,,,7.72,5.29,16.05
Okt 33,15.10.2033,,,,,7.80,5.34,16.16
Nov 33,15.11.2033,,,,,7.87,5.40,16.27
Dez 33,15.12.2033,,,,,7.95,5.46,16.38
Jan 34,15.01.2034,,,,,8.02,5.52,16.49
Feb 34,15.02.2034,,,,,8.10,5.58,16.60
Mrz 34,15.03.2034,,,,,8.18,5.63,16.72
Apr 34,15.04.2034,,,,,8.25,5.69,16.83
Mai 34,15.05.2034,,,,,8.33,5.75,16.94
Jun 34,15.06.2034,,,,,8.41,5.81,17.05
Jul 34,15.07.2034,,,,,8.48,5.86,17.16
Aug 34,15.08.2034,,,,,8.56,5.92,17.27
Sep 34,15.09.2034,,,,,8.63,5.98,17.39
Okt 34,15.10.2034,,,,,8.71,6.04,17.50
Nov 34,15.11.2034,,,,,8.79,6.09,17.61
Dez 34,15.12.2034,,,,,8.86,6.15,17.72
Jan 35,15.01.2035,,,,,8.94,6.21,17.83
Feb 35,15.02.2035,,,,,9.01,6.27,17.94
Mrz 35,15.03.2035,,,,,9.09,6.32,18.06
Apr 35,15.04.2035,,,,,9.17,6.38,18.17
Mai 35,15.05.2035,,,,,9.24,6.44,18.28
Jun 35,15.06.2035,,,,,9.32,6.50,18.39
Jul 35,15.07.2035,,,,,9.39,6.55,18.50
Aug 35,15.08.2035,,,,,9.47,6.61,18.61
Sep 35,15.09.2035,,,,,9.55,6.67,18.73
Okt 35,15.10.2035,,,,,9.62,6.73,18.84
Nov 35,15.11.2035,,,,,9.70,6.78,18.95
Dez 35,15.12.2035,,,,9.77,9.77,6.84,19.06
Jan 36,15.01.2036,,,,,9.80,6.86,19.46
Feb 36,15.02.2036,,,,,9.83,6.88,19.85
Mrz 36,15.03.2036,,,,,9.85,6.90,20.25
Apr 36,15.04.2036,,,,,9.88,6.91,20.65
Mai 36,15.05.2036,,,,,9.90,6.93,21.05
Jun 36,15.06.2036,,,,,9.93,6.95,21.44
Jul 36,15.07.2036,,,,,9.96,6.97,21.84
Aug 36,15.08.2036,,,,,9.98,6.99,22.24
Sep 36,15.09.2036,,,,,10.01,7.01,22.63
Okt 36,15.10.2036,,,,,10.03,7.02,23.03
Nov 36,15.11.2036,,,,,10.06,7.04,23.43
Dez 36,15.12.2036,,,,,10.09,7.06,23.82
Jan 37,15.01.2037,,,,,10.11,7.08,24.22
Feb 37,15.02.2037,,,,,10.14,7.10,24.62
Mrz 37,15.03.2037,,,,,10.16,7.11,25.02
Apr 37,15.04.2037,,,,,10.19,7.13,25.41
Mai 37,15.05.2037,,,,,10.22,7.15,25.81
Jun 37,15.06.2037,,,,,10.24,7.17,26.21
Jul 37,15.07.2037,,,,,10.27,7.19,26.60
Aug 37,15.08.2037,,,,,10.29,7.21,27.00
Sep 37,15.09.2037,,,,,10.32,7.22,27.40
Okt 37,15.10.2037,,,,,10.35,7.24,27.79
Nov 37,15.11.2037,,,,,10.37,7.26,28.19
Dez 37,15.12.2037,,,,,10.40,7.28,28.59
Jan 38,15.01.2038,,,,,10.42,7.30,28.98
Feb 38,15.02.2038,,,,,10.45,7.31,29.38
Mrz 38,15.03.2038,,,,,10.47,7.33,29.78
Apr 38,15.04.2038,,,,,10.50,7.35,30.18
Mai 38,15.05.2038,,,,,10.53,7.37,30.57
Jun 38,15.06.2038,,,,,10.55,7.39,30.97
Jul 38,15.07.2038,,,,,10.58,7.40,31.37
Aug 38,15.08.2038,,,,,10.60,7.42,31.76
Sep 38,15.09.2038,,,,,10.63,7.44,32.16
Okt 38,15.10.2038,,,,,10.66,7.46,32.56
Nov 38,15.11.2038,,,,,10.68,7.48,32.95
Dez 38,15.12.2038,,,,,10.71,7.50,33.35
Jan 39,15.01.2039,,,,,10.73,7.51,33.75
Feb 39,15.02.2039,,,,,10.76,7.53,34.14
Mrz 39,15.03.2039,,,,,10.79,7.55,34.54
Apr 39,15.04.2039,,,,,10.81,7.57,34.94
Mai 39,15.05.2039,,,,,10.84,7.59,35.34
Jun 39,15.06.2039,,,,,10.86,7.60,35.73
Jul 39,15.07.2039,,,,,10.89,7.62,36.13
Aug 39,15.08.2039,,,,,10.92,7.64,36.53
Sep 39,15.09.2039,,,,,10.94,7.66,36.92
Okt 39,15.10.2039,,,,,10.97,7.68,37.32
Nov 39,15.11.2039,,,,,10.99,7.70,37.72
Dez 39,15.12.2039,,,,,11.02,7.71,38.11
Jan 40,15.01.2040,,,,,11.05,7.73,38.51
Feb 40,15.02.2040,,,,,11.07,7.75,38.91
Mrz 40,15.03.2040,,,,,11.10,7.77,39.31
Apr 40,15.04.2040,,,,,11.12,7.79,39.70
Mai 40,15.05.2040,,,,,11.15,7.80,40.10
Jun 40,15.06.2040,,,,,11.17,7.82,40.50
Jul 40,15.07.2040,,,,,11.20,7.84,40.89
Aug 40,15.08.2040,,,,,11.23,7.86,41.29
Sep 40,15.09.2040,,,,,11.25,7.88,41.69
Okt 40,15.10.2040,,,,,11.28,7.89,42.08
Nov 40,15.11.2040,,,,,11.30,7.91,42.48
Dez 40,15.12.2040,,,,11.33,11.33,7.93,42.88
Jan 41,15.01.2041,,,,,11.33,7.93,43.01
Feb 41,15.02.2041,,,,,11.33,7.93,43.15
Mrz 41,15.03.2041,,,,,11.33,7.93,43.28
Apr 41,15.04.2041,,,,,11.34,7.94,43.42
Mai 41,15.05.2041,,,,,11.34,7.94,43.55
Jun 41,15.06.2041,,,,,11.34,7.94,43.69
Jul 41,15.07.2041,,,,,11.34,7.94,43.82
Aug 41,15.08.2041,,,,,11.34,7.94,43.96
Sep 41,15.09.2041,,,,,11.34,7.94,44.09
Okt 41,15.10.2041,,,,,11.35,7.94,44.23
Nov 41,15.11.2041,,,,,11.35,7.94,44.36
Dez 41,15.12.2041,,,,,11.35,7.94,44.50
Jan 42,15.01.2042,,,,,11.35,7.95,44.63
Feb 42,15.02.2042,,,,,11.35,7.95,44.77
Mrz 42,15.03.2042,,,,,11.35,7.95,44.90
Apr 42,15.04.2042,,,,,11.35,7.95,45.04
Mai 42,15.05.2042,,,,,11.36,7.95,45.17
Jun 42,15.06.2042,,,,,11.36,7.95,45.31
Jul 42,15.07.2042,,,,,11.36,7.95,45.44
Aug 42,15.08.2042,,,,,11.36,7.95,45.58
Sep 42,15.09.2042,,,,,11.36,7.95,45.71
Okt 42,15.10.2042,,,,,11.36,7.95,45.85
Nov 42,15.11.2042,,,,,11.37,7.96,45.98
Dez 42,15.12.2042,,,,,11.37,7.96,46.12
Jan 43,15.01.2043,,,,,11.37,7.96,46.25
Feb 43,15.02.2043,,,,,11.37,7.96,46.38
Mrz 43,15.03.2043,,,,,11.37,7.96,46.52
Apr 43,15.04.2043,,,,,11.37,7.96,46.65
Mai 43,15.05.2043,,,,,11.37,7.96,46.79
Jun 43,15.06.2043,,,,,11.38,7.96,46.92
Jul 43,15.07.2043,,,,,11.38,7.96,47.06
Aug 43,15.08.2043,,,,,11.38,7.97,47.19
Sep 43,15.09.2043,,,,,11.38,7.97,47.33
Okt 43,15.10.2043,,,,,11.38,7.97,47.46
Nov 43,15.11.2043,,,,,11.38,7.97,47.60
Dez 43,15.12.2043,,,,,11.39,7.97,47.73
Jan 44,15.01.2044,,,,,11.39,7.97,47.87
Feb 44,15.02.2044,,,,,11.39,7.97,48.00
Mrz 44,15.03.2044,,,,,11.39,7.97,48.14
Apr 44,15.04.2044,,,,,11.39,7.97,48.27
Mai 44,15.05.2044,,,,,11.39,7.98,48.41
Jun 44,15.06.2044,,,,,11.39,7.98,48.54
Jul 44,15.07.2044,,,,,11.40,7.98,48.68
Aug 44,15.08.2044,,,,,11.40,7.98,48.81
Sep 44,15.09.2044,,,,,11.40,7.98,48.95
Okt 44,15.10.2044,,,,,11.40,7.98,49.08
Nov 44,15.11.2044,,,,,11.40,7.98,49.22
Dez 44,15.12.2044,,,,,11.40,7.98,49.35
Jan 45,15.01.2045,,,,,11.41,7.98,49.49
Feb 45,15.02.2045,,,,,11.41,7.98,49.62
Mrz 45,15.03.2045,,,,,11.41,7.99,49.76
Apr 45,15.04.2045,,,,,11.41,7.99,49.89
Mai 45,15.05.2045,,,,,11.41,7.99,50.03
Jun 45,15.06.2045,,,,,11.41,7.99,50.16
Jul 45,15.07.2045,,,,,11.41,7.99,50.30
Aug 45,15.08.2045,,,,,11.42,7.99,50.43
Sep 45,15.09.2045,,,,,11.42,7.99,50.57
Okt 45,15.10.2045,,,,,11.42,7.99,50.70
Nov 45,15.11.2045,,,,,11.42,7.99,50.84
Dez 45,15.12.2045,,,,11.42,11.42,8.00,50.97