months,date,actual,add_mw,add_gw,plan,plan_linear,ariadne_lead_points,ariadne_lead_linear,ariadne_min,ariadne_max
Jan 17,15.01.2017,40.725,45,0.045,,,,,,
Feb 17,15.02.2017,40.863,138,0.138,,,,,,
Mrz 17,15.03.2017,40.972,109,0.109,,,,,,
Apr 17,15.04.2017,41.112,140,0.140,,,,,,
Mai 17,15.05.2017,41.301,189,0.189,,,,,,
Jun 17,15.06.2017,41.509,208,0.208,,,,,,
Jul 17,15.07.2017,41.639,130,0.130,,,,,,
Aug 17,15.08.2017,41.783,144,0.144,,,,,,
Sep 17,15.09.2017,41.89,107,0.107,,,,,,
Okt 17,15.10.2017,42.043,153,0.153,,,,,,
Nov 17,15.11.2017,42.148,105,0.105,,,,,,
Dez 17,15.12.2017,42.293,145,0.145,,,,,,
Jan 18,15.01.2018,42.542,249,0.249,,,,,,
Feb 18,15.02.2018,42.730,188,0.188,,,,,,
Mrz 18,15.03.2018,42.897,167,0.167,,,,,,
Apr 18,15.04.2018,43.130,233,0.233,,,,,,
Mai 18,15.05.2018,43.303,173,0.173,,,,,,
Jun 18,15.06.2018,43.639,336,0.336,,,,,,
Jul 18,15.07.2018,43.949,310,0.310,,,,,,
Aug 18,15.08.2018,44.263,314,0.314,,,,,,
Sep 18,15.09.2018,44.445,182,0.182,,,,,,
Okt 18,15.10.2018,44.631,186,0.186,,,,,,
Nov 18,15.11.2018,44.840,209,0.209,,,,,,
Dez 18,15.12.2018,45.158,318,0.318,,,,,,
Jan 19,15.01.2019,45.975,817,0.817,,,,,,
Feb 19,15.02.2019,46.307,332,0.332,,,,,,
Mrz 19,15.03.2019,46.629,322,0.322,,,,,,
Apr 19,15.04.2019,46.889,260,0.260,,,,,,
Mai 19,15.05.2019,47.150,261,0.261,,,,,,
Jun 19,15.06.2019,47.406,256,0.256,,,,,,
Jul 19,15.07.2019,47.687,281,0.281,,,,,,
Aug 19,15.08.2019,48.009,322,0.322,,,,,,
Sep 19,15.09.2019,48.285,276,0.276,,,,,,
Okt 19,15.10.2019,48.649,364,0.364,,,,,,
Nov 19,15.11.2019,48.831,182,0.182,,,,,,
Dez 19,15.12.2019,48.914,217,0.217,,,,,,
Jan 20,15.01.2020,49.392,478,0.478,,,,,,
Feb 20,15.02.2020,49.678,286,0.286,,,,,,
Mrz 20,15.03.2020,50.041,363,0.363,,,,,,
Apr 20,15.04.2020,50.411,370,0.370,,,,,,
Mai 20,15.05.2020,50.883,472,0.472,,,,,,
Jun 20,15.06.2020,51.341,458,0.458,,,,,,
Jul 20,15.07.2020,51.748,407,0.407,,,,,,
Aug 20,15.08.2020,52.141,393,0.393,,,,,,
Sep 20,15.09.2020,52.504,363,0.363,,,,,,
Okt 20,15.10.2020,52.910,406,0.406,,,,,,
Nov 20,15.11.2020,53.297,387,0.387,,,,,,
Dez 20,15.12.2020,53.721,419,0.419,,,56.470,56.470,54.744,56.470
Jan 21,15.01.2021,54.117,396,0.396,,,,57.177,55.395,57.250
Feb 21,15.02.2021,54.496,379,0.379,,,,57.884,56.046,58.029
Mrz 21,15.03.2021,55.140,644,0.644,,,,58.592,56.697,58.809
Apr 21,15.04.2021,55.646,506,0.506,,,,59.299,57.348,59.588
Mai 21,15.05.2021,56.020,374,0.374,,,,60.006,57.999,60.368
Jun 21,15.06.2021,56.451,431,0.431,,,,60.713,58.650,61.147
Jul 21,15.07.2021,56.933,482,0.482,,,,61.420,59.302,61.927
Aug 21,15.08.2021,57.302,369,0.369,,,,62.127,59.953,62.707
Sep 21,15.09.2021,57.724,422,0.422,,,,62.835,60.604,63.486
Okt 21,15.10.2021,58.098,374,0.374,,58.098,,63.542,61.255,64.266
Nov 21,15.11.2021,58.429,331,0.331,,59.388,,64.249,61.906,65.045
Dez 21,15.12.2021,58.728,300,0.300,,60.678,,64.956,62.557,65.825
Jan 22,15.01.2022,59.204,476,0.476,,61.968,,65.663,63.208,66.604
Feb 22,15.02.2022,59.873,669,0.669,,63.258,,66.370,63.859,67.384
Mrz 22,15.03.2022,60.582,709,0.709,,64.548,,67.078,64.510,68.164
Apr 22,15.04.2022,,,,,65.838,,67.785,65.161,68.943
Mai 22,15.05.2022,,,,,67.128,,68.492,65.812,69.723
Jun 22,15.06.2022,,,,,68.418,,69.199,66.464,70.502
Jul 22,15.07.2022,,,,,69.708,,69.906,67.115,71.282
Aug 22,15.08.2022,,,,,70.998,,70.613,67.766,72.061
Sep 22,15.09.2022,,,,,72.288,,71.321,68.417,72.841
Okt 22,15.10.2022,,,,,73.578,,72.028,69.068,73.621
Nov 22,15.11.2022,,,,,74.868,,72.735,69.719,74.400
Dez 22,15.12.2022,,,,,76.158,,73.442,70.370,75.180
Jan 23,15.01.2023,,,,,77.448,,74.149,71.021,75.959
Feb 23,15.02.2023,,,,,78.738,,74.856,71.672,76.739
Mrz 23,15.03.2023,,,,,80.028,,75.564,72.323,77.518
Apr 23,15.04.2023,,,,,81.318,,76.271,72.975,78.298
Mai 23,15.05.2023,,,,,82.608,,76.978,73.626,79.078
Jun 23,15.06.2023,,,,,83.898,,77.685,74.277,79.857
Jul 23,15.07.2023,,,,,85.188,,78.392,74.928,80.637
Aug 23,15.08.2023,,,,,86.478,,79.099,75.579,81.416
Sep 23,15.09.2023,,,,,87.768,,79.807,76.230,82.196
Okt 23,15.10.2023,,,,,89.058,,80.514,76.881,82.975
Nov 23,15.11.2023,,,,,90.348,,81.221,77.532,83.755
Dez 23,15.12.2023,,,,,91.638,,81.928,78.183,84.535
Jan 24,15.01.2024,,,,,92.928,,82.635,78.834,85.314
Feb 24,15.02.2024,,,,,94.219,,83.342,79.485,86.094
Mrz 24,15.03.2024,,,,,95.509,,84.050,80.137,86.873
Apr 24,15.04.2024,,,,,96.799,,84.757,80.788,87.653
Mai 24,15.05.2024,,,,,98.089,,85.464,81.439,88.432
Jun 24,15.06.2024,,,,,99.379,,86.171,82.090,89.212
Jul 24,15.07.2024,,,,,100.669,,86.878,82.741,89.992
Aug 24,15.08.2024,,,,,101.959,,87.585,83.392,90.771
Sep 24,15.09.2024,,,,,103.249,,88.293,84.043,91.551
Okt 24,15.10.2024,,,,,104.539,,89.000,84.694,92.330
Nov 24,15.11.2024,,,,,105.829,,89.707,85.345,93.110
Dez 24,15.12.2024,,,,,107.119,,90.414,85.996,93.889
Jan 25,15.01.2025,,,,,108.409,,91.121,86.647,94.669
Feb 25,15.02.2025,,,,,109.699,,91.828,87.299,95.448
Mrz 25,15.03.2025,,,,,110.989,,92.536,87.950,96.228
Apr 25,15.04.2025,,,,,112.279,,93.243,88.601,97.008
Mai 25,15.05.2025,,,,,113.569,,93.950,89.252,97.787
Jun 25,15.06.2025,,,,,114.859,,94.657,89.903,98.567
Jul 25,15.07.2025,,,,,116.149,,95.364,90.554,99.346
Aug 25,15.08.2025,,,,,117.439,,96.071,91.205,100.126
Sep 25,15.09.2025,,,,,118.729,,96.779,91.856,100.905
Okt 25,15.10.2025,,,,,120.019,,97.486,92.507,101.685
Nov 25,15.11.2025,,,,,121.309,,98.193,93.158,102.465
Dez 25,15.12.2025,,,,,122.599,98.900,98.900,93.809,103.244
Jan 26,15.01.2026,,,,,123.889,,100.888,94.991,105.211
Feb 26,15.02.2026,,,,,125.179,,102.875,96.172,107.178
Mrz 26,15.03.2026,,,,,126.469,,104.863,97.354,109.145
Apr 26,15.04.2026,,,,,127.759,,106.851,98.535,111.112
Mai 26,15.05.2026,,,,,129.049,,108.838,99.717,113.078
Jun 26,15.06.2026,,,,,130.339,,110.826,100.898,115.045
Jul 26,15.07.2026,,,,,131.629,,112.814,102.079,117.012
Aug 26,15.08.2026,,,,,132.919,,114.801,103.261,118.979
Sep 26,15.09.2026,,,,,134.209,,116.789,104.442,120.946
Okt 26,15.10.2026,,,,,135.499,,118.777,105.624,122.912
Nov 26,15.11.2026,,,,,136.789,,120.764,106.805,124.879
Dez 26,15.12.2026,,,,,138.079,,122.752,107.987,126.846
Jan 27,15.01.2027,,,,,139.369,,124.740,109.168,128.813
Feb 27,15.02.2027,,,,,140.659,,126.727,110.349,130.780
Mrz 27,15.03.2027,,,,,141.949,,128.715,111.531,132.747
Apr 27,15.04.2027,,,,,143.239,,130.703,112.712,134.713
Mai 27,15.05.2027,,,,,144.529,,132.690,113.894,136.680
Jun 27,15.06.2027,,,,,145.819,,134.678,115.075,138.647
Jul 27,15.07.2027,,,,,147.109,,136.666,116.256,140.614
Aug 27,15.08.2027,,,,,148.399,,138.653,117.438,142.581
Sep 27,15.09.2027,,,,,149.689,,140.641,118.619,144.548
Okt 27,15.10.2027,,,,,150.979,,142.629,119.801,146.514
Nov 27,15.11.2027,,,,,152.269,,144.616,120.982,148.481
Dez 27,15.12.2027,,,,,153.559,,146.604,122.164,150.448
Jan 28,15.01.2028,,,,,154.849,,148.591,123.345,152.415
Feb 28,15.02.2028,,,,,156.139,,150.579,124.526,154.382
Mrz 28,15.03.2028,,,,,157.429,,152.567,125.708,156.349
Apr 28,15.04.2028,,,,,158.719,,154.554,126.889,158.315
Mai 28,15.05.2028,,,,,160.009,,156.542,128.071,160.282
Jun 28,15.06.2028,,,,,161.299,,158.530,129.252,162.249
Jul 28,15.07.2028,,,,,162.589,,160.517,130.433,164.216
Aug 28,15.08.2028,,,,,163.879,,162.505,131.615,166.183
Sep 28,15.09.2028,,,,,165.170,,164.493,132.796,168.150
Okt 28,15.10.2028,,,,,166.460,,166.480,133.978,170.116
Nov 28,15.11.2028,,,,,167.750,,168.468,135.159,172.083
Dez 28,15.12.2028,,,,,169.040,,170.456,136.341,174.050
Jan 29,15.01.2029,,,,,170.330,,172.443,137.522,176.017
Feb 29,15.02.2029,,,,,171.620,,174.431,138.703,177.984
Mrz 29,15.03.2029,,,,,172.910,,176.419,139.885,179.951
Apr 29,15.04.2029,,,,,174.200,,178.406,141.066,181.917
Mai 29,15.05.2029,,,,,175.490,,180.394,142.248,183.884
Jun 29,15.06.2029,,,,,176.780,,182.382,143.429,185.851
Jul 29,15.07.2029,,,,,178.070,,184.369,144.611,187.818
Aug 29,15.08.2029,,,,,179.360,,186.357,145.792,189.785
Sep 29,15.09.2029,,,,,180.650,,188.345,146.973,191.752
Okt 29,15.10.2029,,,,,181.940,,190.332,148.155,193.718
Nov 29,15.11.2029,,,,,183.230,,192.320,149.336,195.685
Dez 29,15.12.2029,,,,,184.520,,194.308,150.518,197.652
Jan 30,15.01.2030,,,,,185.810,,196.295,151.699,199.619
Feb 30,15.02.2030,,,,,187.100,,198.283,152.880,201.586
Mrz 30,15.03.2030,,,,,188.390,,200.271,154.062,203.553
Apr 30,15.04.2030,,,,,189.680,,202.258,155.243,205.519
Mai 30,15.05.2030,,,,,190.970,,204.246,156.425,207.486
Jun 30,15.06.2030,,,,,192.260,,206.234,157.606,209.453
Jul 30,15.07.2030,,,,,193.550,,208.221,158.788,211.420
Aug 30,15.08.2030,,,,,194.840,,210.209,159.969,213.387
Sep 30,15.09.2030,,,,,196.130,,212.197,161.150,215.354
Okt 30,15.10.2030,,,,,197.420,,214.184,162.332,217.320
Nov 30,15.11.2030,,,,,198.710,,216.172,163.513,219.287
Dez 30,15.12.2030,,,,200,200,218.160,218.160,164.695,221.254
Jan 31,15.01.2031,,,,,,,219.794,166.056,223.064
Feb 31,15.02.2031,,,,,,,221.428,167.418,224.874
Mrz 31,15.03.2031,,,,,,,223.061,168.779,226.685
Apr 31,15.04.2031,,,,,,,224.695,170.141,228.495
Mai 31,15.05.2031,,,,,,,226.329,171.503,230.305
Jun 31,15.06.2031,,,,,,,227.963,172.864,232.115
Jul 31,15.07.2031,,,,,,,229.597,174.226,233.926
Aug 31,15.08.2031,,,,,,,231.231,175.587,235.736
Sep 31,15.09.2031,,,,,,,232.865,176.949,237.546
Okt 31,15.10.2031,,,,,,,234.499,178.310,239.356
Nov 31,15.11.2031,,,,,,,236.133,179.672,241.167
Dez 31,15.12.2031,,,,,,,237.767,181.034,242.977
Jan 32,15.01.2032,,,,,,,239.401,182.395,244.787
Feb 32,15.02.2032,,,,,,,241.035,183.757,246.597
Mrz 32,15.03.2032,,,,,,,242.669,185.118,248.408
Apr 32,15.04.2032,,,,,,,244.303,186.480,250.218
Mai 32,15.05.2032,,,,,,,245.937,187.841,252.028
Jun 32,15.06.2032,,,,,,,247.571,189.203,253.838
Jul 32,15.07.2032,,,,,,,249.205,190.564,255.649
Aug 32,15.08.2032,,,,,,,250.839,191.926,257.459
Sep 32,15.09.2032,,,,,,,252.473,193.288,259.269
Okt 32,15.10.2032,,,,,,,254.107,194.649,261.079
Nov 32,15.11.2032,,,,,,,255.741,196.011,262.890
Dez 32,15.12.2032,,,,,,,257.375,197.372,264.700
Jan 33,15.01.2033,,,,,,,259.009,198.734,266.510
Feb 33,15.02.2033,,,,,,,260.643,200.095,268.320
Mrz 33,15.03.2033,,,,,,,262.277,201.457,270.131
Apr 33,15.04.2033,,,,,,,263.911,202.819,271.941
Mai 33,15.05.2033,,,,,,,265.545,204.180,273.751
Jun 33,15.06.2033,,,,,,,267.179,205.542,275.561
Jul 33,15.07.2033,,,,,,,268.813,206.903,277.372
Aug 33,15.08.2033,,,,,,,270.447,208.265,279.182
Sep 33,15.09.2033,,,,,,,272.081,209.626,280.992
Okt 33,15.10.2033,,,,,,,273.715,210.988,282.802
Nov 33,15.11.2033,,,,,,,275.349,212.350,284.613
Dez 33,15.12.2033,,,,,,,276.983,213.711,286.423
Jan 34,15.01.2034,,,,,,,278.617,215.073,288.233
Feb 34,15.02.2034,,,,,,,280.251,216.434,290.043
Mrz 34,15.03.2034,,,,,,,281.885,217.796,291.854
Apr 34,15.04.2034,,,,,,,283.519,219.157,293.664
Mai 34,15.05.2034,,,,,,,285.153,220.519,295.474
Jun 34,15.06.2034,,,,,,,286.787,221.881,297.284
Jul 34,15.07.2034,,,,,,,288.421,223.242,299.095
Aug 34,15.08.2034,,,,,,,290.055,224.604,300.905
Sep 34,15.09.2034,,,,,,,291.689,225.965,302.715
Okt 34,15.10.2034,,,,,,,293.323,227.327,304.525
Nov 34,15.11.2034,,,,,,,294.957,228.688,306.336
Dez 34,15.12.2034,,,,,,,296.591,230.050,308.146
Jan 35,15.01.2035,,,,,,,298.225,231.411,309.956
Feb 35,15.02.2035,,,,,,,299.859,232.773,311.766
Mrz 35,15.03.2035,,,,,,,301.493,234.135,313.577
Apr 35,15.04.2035,,,,,,,303.127,235.496,315.387
Mai 35,15.05.2035,,,,,,,304.761,236.858,317.197
Jun 35,15.06.2035,,,,,,,306.395,238.219,319.007
Jul 35,15.07.2035,,,,,,,308.029,239.581,320.818
Aug 35,15.08.2035,,,,,,,309.663,240.942,322.628
Sep 35,15.09.2035,,,,,,,311.297,242.304,324.438
Okt 35,15.10.2035,,,,,,,312.931,243.666,326.248
Nov 35,15.11.2035,,,,,,,314.565,245.027,328.059
Dez 35,15.12.2035,,,,,,316.199,316.199,246.389,329.869
Jan 36,15.01.2036,,,,,,,316.598,247.130,330.470
Feb 36,15.02.2036,,,,,,,316.998,247.871,331.072
Mrz 36,15.03.2036,,,,,,,317.397,248.612,331.674
Apr 36,15.04.2036,,,,,,,317.797,249.353,332.275
Mai 36,15.05.2036,,,,,,,318.197,250.094,332.877
Jun 36,15.06.2036,,,,,,,318.596,250.836,333.479
Jul 36,15.07.2036,,,,,,,318.996,251.577,334.080
Aug 36,15.08.2036,,,,,,,319.395,252.318,334.682
Sep 36,15.09.2036,,,,,,,319.795,253.059,335.283
Okt 36,15.10.2036,,,,,,,320.194,253.800,335.885
Nov 36,15.11.2036,,,,,,,320.594,254.541,336.487
Dez 36,15.12.2036,,,,,,,320.993,255.282,337.088
Jan 37,15.01.2037,,,,,,,321.393,256.024,337.690
Feb 37,15.02.2037,,,,,,,321.792,256.765,338.292
Mrz 37,15.03.2037,,,,,,,322.192,257.506,338.893
Apr 37,15.04.2037,,,,,,,322.592,258.247,339.495
Mai 37,15.05.2037,,,,,,,322.991,258.988,340.096
Jun 37,15.06.2037,,,,,,,323.391,259.729,340.698
Jul 37,15.07.2037,,,,,,,323.790,260.470,341.300
Aug 37,15.08.2037,,,,,,,324.190,261.211,341.901
Sep 37,15.09.2037,,,,,,,324.589,261.953,342.503
Okt 37,15.10.2037,,,,,,,324.989,262.694,343.105
Nov 37,15.11.2037,,,,,,,325.388,263.435,343.706
Dez 37,15.12.2037,,,,,,,325.788,264.176,344.308
Jan 38,15.01.2038,,,,,,,326.187,264.917,344.909
Feb 38,15.02.2038,,,,,,,326.587,265.658,345.511
Mrz 38,15.03.2038,,,,,,,326.987,266.399,346.113
Apr 38,15.04.2038,,,,,,,327.386,267.141,346.714
Mai 38,15.05.2038,,,,,,,327.786,267.882,347.316
Jun 38,15.06.2038,,,,,,,328.185,268.623,347.918
Jul 38,15.07.2038,,,,,,,328.585,269.364,348.519
Aug 38,15.08.2038,,,,,,,328.984,270.105,349.121
Sep 38,15.09.2038,,,,,,,329.384,270.846,349.722
Okt 38,15.10.2038,,,,,,,329.783,271.587,350.324
Nov 38,15.11.2038,,,,,,,330.183,272.329,350.926
Dez 38,15.12.2038,,,,,,,330.582,273.070,351.527
Jan 39,15.01.2039,,,,,,,330.982,273.811,352.129
Feb 39,15.02.2039,,,,,,,331.381,274.552,352.731
Mrz 39,15.03.2039,,,,,,,331.781,275.293,353.332
Apr 39,15.04.2039,,,,,,,332.181,276.034,353.934
Mai 39,15.05.2039,,,,,,,332.580,276.775,354.535
Jun 39,15.06.2039,,,,,,,332.980,277.516,355.137
Jul 39,15.07.2039,,,,,,,333.379,278.258,355.739
Aug 39,15.08.2039,,,,,,,333.779,278.999,356.340
Sep 39,15.09.2039,,,,,,,334.178,279.740,356.942
Okt 39,15.10.2039,,,,,,,334.578,280.481,357.544
Nov 39,15.11.2039,,,,,,,334.977,281.222,358.145
Dez 39,15.12.2039,,,,,,,335.377,281.963,358.747
Jan 40,15.01.2040,,,,,,,335.776,282.704,359.348
Feb 40,15.02.2040,,,,,,,336.176,283.446,359.950
Mrz 40,15.03.2040,,,,,,,336.576,284.187,360.552
Apr 40,15.04.2040,,,,,,,336.975,284.928,361.153
Mai 40,15.05.2040,,,,,,,337.375,285.669,361.755
Jun 40,15.06.2040,,,,,,,337.774,286.410,362.356
Jul 40,15.07.2040,,,,,,,338.174,287.151,362.958
Aug 40,15.08.2040,,,,,,,338.573,287.892,363.560
Sep 40,15.09.2040,,,,,,,338.973,288.634,364.161
Okt 40,15.10.2040,,,,,,,339.372,289.375,364.763
Nov 40,15.11.2040,,,,,,,339.772,290.116,365.365
Dez 40,15.12.2040,,,,,,340.171,340.171,290.857,365.966
Jan 41,15.01.2041,,,,,,,339.989,290.567,367.472
Feb 41,15.02.2041,,,,,,,339.807,290.278,368.978
Mrz 41,15.03.2041,,,,,,,339.624,289.988,370.483
Apr 41,15.04.2041,,,,,,,339.442,289.699,371.989
Mai 41,15.05.2041,,,,,,,339.260,289.409,373.495
Jun 41,15.06.2041,,,,,,,339.077,289.120,375.000
Jul 41,15.07.2041,,,,,,,338.895,288.830,376.506
Aug 41,15.08.2041,,,,,,,338.712,288.541,378.012
Sep 41,15.09.2041,,,,,,,338.530,288.251,379.517
Okt 41,15.10.2041,,,,,,,338.348,287.962,381.023
Nov 41,15.11.2041,,,,,,,338.165,287.672,382.529
Dez 41,15.12.2041,,,,,,,337.983,287.383,384.034
Jan 42,15.01.2042,,,,,,,337.800,287.093,385.540
Feb 42,15.02.2042,,,,,,,337.618,286.804,387.046
Mrz 42,15.03.2042,,,,,,,337.436,286.514,388.551
Apr 42,15.04.2042,,,,,,,337.253,286.225,390.057
Mai 42,15.05.2042,,,,,,,337.071,285.935,391.563
Jun 42,15.06.2042,,,,,,,336.888,285.646,393.068
Jul 42,15.07.2042,,,,,,,336.706,285.356,394.574
Aug 42,15.08.2042,,,,,,,336.524,285.067,396.080
Sep 42,15.09.2042,,,,,,,336.341,284.777,397.585
Okt 42,15.10.2042,,,,,,,336.159,284.488,399.091
Nov 42,15.11.2042,,,,,,,335.977,284.198,400.597
Dez 42,15.12.2042,,,,,,,335.794,283.909,402.102
Jan 43,15.01.2043,,,,,,,335.612,283.619,403.608
Feb 43,15.02.2043,,,,,,,335.429,283.330,405.114
Mrz 43,15.03.2043,,,,,,,335.247,283.040,406.619
Apr 43,15.04.2043,,,,,,,335.065,282.751,408.125
Mai 43,15.05.2043,,,,,,,334.882,282.462,409.631
Jun 43,15.06.2043,,,,,,,334.700,282.172,411.136
Jul 43,15.07.2043,,,,,,,334.517,281.883,412.642
Aug 43,15.08.2043,,,,,,,334.335,281.593,414.148
Sep 43,15.09.2043,,,,,,,334.153,281.304,415.653
Okt 43,15.10.2043,,,,,,,333.970,281.014,417.159
Nov 43,15.11.2043,,,,,,,333.788,280.725,418.665
Dez 43,15.12.2043,,,,,,,333.605,280.435,420.170
Jan 44,15.01.2044,,,,,,,333.423,280.146,421.676
Feb 44,15.02.2044,,,,,,,333.241,279.856,423.182
Mrz 44,15.03.2044,,,,,,,333.058,279.567,424.687
Apr 44,15.04.2044,,,,,,,332.876,279.277,426.193
Mai 44,15.05.2044,,,,,,,332.694,278.988,427.699
Jun 44,15.06.2044,,,,,,,332.511,278.698,429.204
Jul 44,15.07.2044,,,,,,,332.329,278.409,430.710
Aug 44,15.08.2044,,,,,,,332.146,278.119,432.216
Sep 44,15.09.2044,,,,,,,331.964,277.830,433.721
Okt 44,15.10.2044,,,,,,,331.782,277.540,435.227
Nov 44,15.11.2044,,,,,,,331.599,277.251,436.733
Dez 44,15.12.2044,,,,,,,331.417,276.961,438.238
Jan 45,15.01.2045,,,,,,,331.234,276.672,439.744
Feb 45,15.02.2045,,,,,,,331.052,276.382,441.250
Mrz 45,15.03.2045,,,,,,,330.870,276.093,442.755
Apr 45,15.04.2045,,,,,,,330.687,275.803,444.261
Mai 45,15.05.2045,,,,,,,330.505,275.514,445.767
Jun 45,15.06.2045,,,,,,,330.322,275.224,447.272
Jul 45,15.07.2045,,,,,,,330.140,274.935,448.778
Aug 45,15.08.2045,,,,,,,329.958,274.645,450.284
Sep 45,15.09.2045,,,,,,,329.775,274.356,451.789
Okt 45,15.10.2045,,,,,,,329.593,274.066,453.295
Nov 45,15.11.2045,,,,,,,329.411,273.777,454.801
Dez 45,15.12.2045,,,,,,329.228,329.228,273.487,456.306
