years,date,actual,plan,linear_plan
2010,2010,12.3,,
2011,2011,12.8,,
2012,2012,13.9,,
2013,2013,13.9,,
2014,2014,14,,
2015,2015,14.1,,
2016,2016,13.7,,
2017,2017,14,,
2018,2018,15,,
2019,2019,15.1,,
2020,2020,15.6,,15.6
2021,2021,,,19.04
2022,2022,,,22.48
2023,2023,,,25.92
2024,2024,,,29.36
2025,2025,,,32.8
2026,2026,,,36.24
2027,2027,,,39.68
2028,2028,,,43.12
2029,2029,,,46.56
2030,2030,,50,50
